{
  "formatVersion": 1,
  "maps": [
    "map"
  ],
  "filtering": "pixelated",
  "pixelsPerUnit": 100,
  "framesPerSecond": 10,
  "opacity": null,
  "alphaTest": 0.1,
  "frameOrder": "rows",
  "grid": {
    "width": 150,
    "height": 134
  },
  "origin": {
    "x": 0.5,
    "y": 0.5
  },
  "animations": [
    {
      "id": "0",
      "name": "Idle",
      "startFrameIndex": 0,
      "endFrameIndex": 1,
      "speed": 0.2
    }
  ],
  "advancedTextures": false,
  "mapSlots": {
    "map": "map",
    "light": null,
    "specular": null,
    "alpha": null,
    "normal": null
  }
}