{
  "formatVersion": 1,
  "nodes": [
    {
      "id": "0",
      "name": "Popup",
      "children": [
        {
          "id": "1",
          "name": "CloseButton",
          "children": [],
          "components": [],
          "position": {
            "x": 2.731579542160034,
            "y": -1.5526316165924072,
            "z": 0
          },
          "orientation": {
            "x": 0,
            "y": 0,
            "z": 0,
            "w": 1
          },
          "scale": {
            "x": 0.4,
            "y": 0.4,
            "z": 1
          },
          "visible": true,
          "layer": 7,
          "prefab": {
            "sceneAssetId": "27"
          }
        },
        {
          "id": "2",
          "name": "IP Text",
          "children": [],
          "components": [
            {
              "type": "TextRenderer",
              "config": {
                "fontAssetId": "38",
                "text": "IP : 127.0.0.1 (YOU)",
                "alignment": "center",
                "size": null,
                "color": null,
                "verticalAlignment": "center"
              },
              "id": "0"
            }
          ],
          "position": {
            "x": 0.0763359291256247,
            "y": 1.7926210301902188,
            "z": 0
          },
          "orientation": {
            "x": 0,
            "y": 0,
            "z": 0,
            "w": 1
          },
          "scale": {
            "x": 0.35,
            "y": 0.25,
            "z": 1
          },
          "visible": true,
          "layer": 7,
          "prefab": null
        },
        {
          "id": "9",
          "name": "CashPerSecond",
          "children": [],
          "components": [
            {
              "type": "TextRenderer",
              "config": {
                "fontAssetId": "38",
                "text": "Cash / s :",
                "alignment": "left",
                "size": null,
                "color": null,
                "verticalAlignment": "center"
              },
              "id": "0"
            }
          ],
          "position": {
            "x": -3.75,
            "y": 1.2000000476837158,
            "z": 0
          },
          "orientation": {
            "x": 0,
            "y": 0,
            "z": 0,
            "w": 1
          },
          "scale": {
            "x": 0.30000001192092896,
            "y": 0.20000001788139343,
            "z": 1
          },
          "visible": true,
          "layer": 7,
          "prefab": null
        },
        {
          "id": "6",
          "name": "Scan Level",
          "children": [],
          "components": [
            {
              "type": "TextRenderer",
              "config": {
                "fontAssetId": "38",
                "text": "Scan  level : 1",
                "alignment": "left",
                "size": null,
                "color": null,
                "verticalAlignment": "center"
              },
              "id": "0"
            }
          ],
          "position": {
            "x": -3.75,
            "y": 0.699999988079071,
            "z": 0
          },
          "orientation": {
            "x": 0,
            "y": 0,
            "z": 0,
            "w": 1
          },
          "scale": {
            "x": 0.30000001192092896,
            "y": 0.20000001788139343,
            "z": 1
          },
          "visible": true,
          "layer": 7,
          "prefab": null
        },
        {
          "id": "5",
          "name": "Hack Level",
          "children": [],
          "components": [
            {
              "type": "TextRenderer",
              "config": {
                "fontAssetId": "38",
                "text": "Hack  level : 1",
                "alignment": "left",
                "size": null,
                "color": null,
                "verticalAlignment": "center"
              },
              "id": "0"
            }
          ],
          "position": {
            "x": -3.75,
            "y": 0.2,
            "z": 0
          },
          "orientation": {
            "x": 0,
            "y": 0,
            "z": 0,
            "w": 1
          },
          "scale": {
            "x": 0.3,
            "y": 0.2,
            "z": 1
          },
          "visible": true,
          "layer": 7,
          "prefab": null
        },
        {
          "id": "12",
          "name": "Clean Level",
          "children": [],
          "components": [
            {
              "type": "TextRenderer",
              "config": {
                "fontAssetId": "38",
                "text": "Clean level : 1",
                "alignment": "left",
                "size": null,
                "color": null,
                "verticalAlignment": "center"
              },
              "id": "0"
            }
          ],
          "position": {
            "x": -3.75,
            "y": -0.30000001192092896,
            "z": 0
          },
          "orientation": {
            "x": 0,
            "y": 0,
            "z": 0,
            "w": 1
          },
          "scale": {
            "x": 0.30000001192092896,
            "y": 0.20000001788139343,
            "z": 1
          },
          "visible": true,
          "layer": 7,
          "prefab": null
        },
        {
          "id": "10",
          "name": "Cpu Level",
          "children": [],
          "components": [
            {
              "type": "TextRenderer",
              "config": {
                "fontAssetId": "38",
                "text": "Cpu   level : 1",
                "alignment": "left",
                "size": null,
                "color": null,
                "verticalAlignment": "center"
              },
              "id": "0"
            }
          ],
          "position": {
            "x": -3.75,
            "y": -0.8,
            "z": 0
          },
          "orientation": {
            "x": 0,
            "y": 0,
            "z": 0,
            "w": 1
          },
          "scale": {
            "x": 0.30000001192092896,
            "y": 0.20000001788139343,
            "z": 1
          },
          "visible": true,
          "layer": 7,
          "prefab": null
        },
        {
          "id": "8",
          "name": "PlusScan",
          "children": [],
          "components": [],
          "position": {
            "x": 0.9,
            "y": 0.7,
            "z": 0
          },
          "orientation": {
            "x": 0,
            "y": 0,
            "z": 0,
            "w": 1
          },
          "scale": {
            "x": 0.10000000894069672,
            "y": 0.20000001788139343,
            "z": 1
          },
          "visible": true,
          "layer": 7,
          "prefab": {
            "sceneAssetId": "27"
          }
        },
        {
          "id": "7",
          "name": "PlusHack",
          "children": [],
          "components": [],
          "position": {
            "x": 0.9,
            "y": 0.2,
            "z": 0
          },
          "orientation": {
            "x": 0,
            "y": 0,
            "z": 0,
            "w": 1
          },
          "scale": {
            "x": 0.1,
            "y": 0.2,
            "z": 1
          },
          "visible": true,
          "layer": 7,
          "prefab": {
            "sceneAssetId": "27"
          }
        },
        {
          "id": "13",
          "name": "PlusClean",
          "children": [],
          "components": [],
          "position": {
            "x": 0.9,
            "y": -0.3,
            "z": 0
          },
          "orientation": {
            "x": 0,
            "y": 0,
            "z": 0,
            "w": 1
          },
          "scale": {
            "x": 0.10000000894069672,
            "y": 0.20000001788139343,
            "z": 1
          },
          "visible": true,
          "layer": 7,
          "prefab": {
            "sceneAssetId": "27"
          }
        },
        {
          "id": "11",
          "name": "PlusCpu",
          "children": [],
          "components": [],
          "position": {
            "x": 0.9,
            "y": -0.8,
            "z": 0
          },
          "orientation": {
            "x": 0,
            "y": 0,
            "z": 0,
            "w": 1
          },
          "scale": {
            "x": 0.1,
            "y": 0.2,
            "z": 1
          },
          "visible": true,
          "layer": 7,
          "prefab": {
            "sceneAssetId": "27"
          }
        },
        {
          "id": "14",
          "name": "Scan Level Cost",
          "children": [],
          "components": [
            {
              "type": "TextRenderer",
              "config": {
                "fontAssetId": "38",
                "text": "100",
                "alignment": "left",
                "size": null,
                "color": null,
                "verticalAlignment": "center"
              },
              "id": "0"
            }
          ],
          "position": {
            "x": 1.25,
            "y": 0.7,
            "z": 0
          },
          "orientation": {
            "x": 0,
            "y": 0,
            "z": 0,
            "w": 1
          },
          "scale": {
            "x": 0.30000001192092896,
            "y": 0.20000001788139343,
            "z": 1
          },
          "visible": true,
          "layer": 7,
          "prefab": null
        },
        {
          "id": "15",
          "name": "Hack Level Cost",
          "children": [],
          "components": [
            {
              "type": "TextRenderer",
              "config": {
                "fontAssetId": "38",
                "text": "100",
                "alignment": "left",
                "size": null,
                "color": null,
                "verticalAlignment": "center"
              },
              "id": "0"
            }
          ],
          "position": {
            "x": 1.25,
            "y": 0.2,
            "z": 0
          },
          "orientation": {
            "x": 0,
            "y": 0,
            "z": 0,
            "w": 1
          },
          "scale": {
            "x": 0.3,
            "y": 0.2,
            "z": 1
          },
          "visible": true,
          "layer": 7,
          "prefab": null
        },
        {
          "id": "17",
          "name": "Clean Level Cost",
          "children": [],
          "components": [
            {
              "type": "TextRenderer",
              "config": {
                "fontAssetId": "38",
                "text": "100",
                "alignment": "left",
                "size": null,
                "color": null,
                "verticalAlignment": "center"
              },
              "id": "0"
            }
          ],
          "position": {
            "x": 1.25,
            "y": -0.3,
            "z": 0
          },
          "orientation": {
            "x": 0,
            "y": 0,
            "z": 0,
            "w": 1
          },
          "scale": {
            "x": 0.30000001192092896,
            "y": 0.20000001788139343,
            "z": 1
          },
          "visible": true,
          "layer": 7,
          "prefab": null
        },
        {
          "id": "16",
          "name": "Cpu Level Cost",
          "children": [],
          "components": [
            {
              "type": "TextRenderer",
              "config": {
                "fontAssetId": "38",
                "text": "100",
                "alignment": "left",
                "size": null,
                "color": null,
                "verticalAlignment": "center"
              },
              "id": "0"
            }
          ],
          "position": {
            "x": 1.25,
            "y": -0.8000000715255737,
            "z": 0
          },
          "orientation": {
            "x": 0,
            "y": 0,
            "z": 0,
            "w": 1
          },
          "scale": {
            "x": 0.30000001192092896,
            "y": 0.20000001788139343,
            "z": 1
          },
          "visible": true,
          "layer": 7,
          "prefab": null
        },
        {
          "id": "19",
          "name": "TrackerButton",
          "children": [],
          "components": [],
          "position": {
            "x": -2.6,
            "y": -1.5,
            "z": 0.01
          },
          "orientation": {
            "x": 0,
            "y": 0,
            "z": 0,
            "w": 1
          },
          "scale": {
            "x": 0.4,
            "y": 0.4,
            "z": 1
          },
          "visible": true,
          "layer": 7,
          "prefab": {
            "sceneAssetId": "27"
          }
        },
        {
          "id": "21",
          "name": "TrackerText",
          "children": [],
          "components": [
            {
              "type": "TextRenderer",
              "config": {
                "fontAssetId": "38",
                "text": "Tracker cost :",
                "alignment": "left",
                "size": null,
                "color": null,
                "verticalAlignment": "center"
              },
              "id": "0"
            }
          ],
          "position": {
            "x": -3.75,
            "y": -1.5,
            "z": 0
          },
          "orientation": {
            "x": 0,
            "y": 0,
            "z": 0,
            "w": 1
          },
          "scale": {
            "x": 0.2,
            "y": 0.2,
            "z": 1
          },
          "visible": true,
          "layer": 7,
          "prefab": null
        },
        {
          "id": "20",
          "name": "Tracker Cost",
          "children": [],
          "components": [
            {
              "type": "TextRenderer",
              "config": {
                "fontAssetId": "38",
                "text": "100",
                "alignment": "left",
                "size": null,
                "color": null,
                "verticalAlignment": "center"
              },
              "id": "0"
            }
          ],
          "position": {
            "x": -1,
            "y": -1.5,
            "z": 0
          },
          "orientation": {
            "x": 0,
            "y": 0,
            "z": 0,
            "w": 1
          },
          "scale": {
            "x": 0.3,
            "y": 0.2,
            "z": 1
          },
          "visible": true,
          "layer": 7,
          "prefab": null
        }
      ],
      "components": [
        {
          "type": "SpriteRenderer",
          "config": {
            "spriteAssetId": "32",
            "animationId": null,
            "horizontalFlip": false,
            "verticalFlip": false,
            "castShadow": false,
            "receiveShadow": false,
            "color": "ffffff",
            "overrideOpacity": false,
            "opacity": null,
            "materialType": "basic",
            "shaderAssetId": null
          },
          "id": "0"
        },
        {
          "type": "Behavior",
          "config": {
            "behaviorName": "PopupPlayerBehavior",
            "propertyValues": {}
          },
          "id": "1"
        }
      ],
      "position": {
        "x": 0,
        "y": 0,
        "z": 0
      },
      "orientation": {
        "x": 0,
        "y": 0,
        "z": 0,
        "w": 1
      },
      "scale": {
        "x": 1.5,
        "y": 1.5,
        "z": 1
      },
      "visible": false,
      "layer": 7,
      "prefab": null
    }
  ]
}