{
  "formatVersion": 1,
  "maps": [
    "map"
  ],
  "filtering": "smooth",
  "pixelsPerUnit": 100,
  "framesPerSecond": 10,
  "opacity": null,
  "alphaTest": 0.3,
  "frameOrder": "columns",
  "grid": {
    "width": 155,
    "height": 144
  },
  "origin": {
    "x": 0.5,
    "y": 0.5
  },
  "animations": [
    {
      "id": "3",
      "name": "Unknown",
      "startFrameIndex": 2,
      "endFrameIndex": 2,
      "speed": 1
    },
    {
      "id": "4",
      "name": "Scan",
      "startFrameIndex": 0,
      "endFrameIndex": 0,
      "speed": 1
    },
    {
      "id": "5",
      "name": "Hack",
      "startFrameIndex": 1,
      "endFrameIndex": 1,
      "speed": 1
    }
  ],
  "advancedTextures": false,
  "mapSlots": {
    "map": "map",
    "light": null,
    "specular": null,
    "alpha": null,
    "normal": null
  }
}